{
    "releases": [
        {
            "name": "1.17.2",
            "created_at": "2023-05-22"
        },
        {
            "name": "1.17.1",
            "created_at": "2023-05-16"
        },
        {
            "name": "1.17.0",
            "created_at": "2023-05-15"
        },
        {
            "name": "1.16.1-rc1",
            "created_at": "2023-04-05"
        },
        {
            "name": "1.16.0",
            "created_at": "2023-04-04"
        },
        {
            "name": "1.15.2",
            "created_at": "2023-03-13"
        },
        {
            "name": "1.15.1",
            "created_at": "2023-03-09"
        },
        {
            "name": "1.15.0",
            "created_at": "2023-03-08"
        },
        {
            "name": "(2023-01-18_1.14.0)",
            "created_at": "2023-02-10"
        },
        {
            "name": "(2022-12-22_1.13.3)",
            "created_at": "2023-02-10"
        },
        {
            "name": "(2022-12-8_1.13.2)",
            "created_at": "2023-02-10"
        },
        {
            "name": "(2022-11-22_1.13.1)",
            "created_at": "2023-02-10"
        },
        {
            "name": "(2022-11-02_1.13.0)",
            "created_at": "2023-02-10"
        },
        {
            "name": "(2022-09-20_1.12.1)",
            "created_at": "2023-02-10"
        },
        {
            "name": "(2022-09-07_1.12.0)",
            "created_at": "2023-02-10"
        },
        {
            "name": "(2022-07-27_1.11.0)",
            "created_at": "2023-02-10"
        },
        {
            "name": "(2022-07-05_1.10.2)",
            "created_at": "2023-02-10"
        },
        {
            "name": "(2022-06-09_1.10.1)",
            "created_at": "2023-02-10"
        },
        {
            "name": "(2022-10-05_1.10.0)",
            "created_at": "2023-02-10"
        },
        {
            "name": "(2022-10-05_1.10.0)",
            "created_at": "2023-02-10"
        },
        {
            "name": "(2022-03-03_1.9.1)",
            "created_at": "2023-02-10"
        },
        {
            "name": "(2022-03-02_1.9)",
            "created_at": "2023-02-10"
        },
        {
            "name": "(2022-01-13_1.8.2)",
            "created_at": "2023-02-10"
        },
        {
            "name": "(2022-01-13_1.8.1)",
            "created_at": "2023-02-10"
        },
        {
            "name": "(2022-01-13)",
            "created_at": "2023-02-10"
        },
        {
            "name": "(2021-11-25)",
            "created_at": "2023-02-10"
        },
        {
            "name": "(2021-11-24)",
            "created_at": "2023-02-10"
        },
        {
            "name": "(2021-10-05)",
            "created_at": "2023-02-10"
        },
        {
            "name": "(2021-08-11)",
            "created_at": "2023-02-10"
        },
        {
            "name": "(2021-07-16)",
            "created_at": "2023-02-10"
        },
        {
            "name": "(2021-07-15)",
            "created_at": "2023-02-10"
        },
        {
            "name": "(2021-07-13)",
            "created_at": "2023-02-10"
        },
        {
            "name": "(2021-07-12)",
            "created_at": "2023-02-10"
        },
        {
            "name": "(2021-06-02)",
            "created_at": "2023-02-10"
        },
        {
            "name": "(2021-05-11)",
            "created_at": "2023-02-10"
        },
        {
            "name": "(2021-04-08)",
            "created_at": "2023-02-10"
        },
        {
            "name": "(2021-03-01)",
            "created_at": "2023-02-10"
        },
        {
            "name": "(2021-02-04)",
            "created_at": "2023-02-10"
        },
        {
            "name": "(2021-01-06)",
            "created_at": "2023-02-10"
        },
        {
            "name": "(2020-12-01)",
            "created_at": "2023-02-10"
        },
        {
            "name": "(2020-11-02)",
            "created_at": "2023-02-10"
        },
        {
            "name": "(2020-10-06)",
            "created_at": "2023-02-10"
        },
        {
            "name": "(2020-09-02)",
            "created_at": "2023-02-10"
        },
        {
            "name": "(2020-08-31)",
            "created_at": "2023-02-10"
        },
        {
            "name": "(2020-07-20)",
            "created_at": "2023-02-10"
        },
        {
            "name": "(2020-06-08)",
            "created_at": "2023-02-10"
        }
    ]
}