{
  "name": "{{ cookiecutter.project_name }}",
  "version": "0.0.1",
  "supported_baserow_versions": "1.17.2",
  "plugin_api_version": "0.0.1-alpha",
  "description": "TODO",
  "author": "TODO",
  "author_url": "TODO",
  "url": "TODO",
  "license": "TODO",
  "contact": "TODO"
}
